[
  {
    "_id": "SpringResult200",
    "_type": "visualization",
    "_source": {
      "title": "SpringResult200_Visualization",
      "visState": "{\"title\":\"New Visualization\",\"type\":\"table\",\"params\":{\"perPage\":10,\"showPartialRows\":false,\"showMeticsAtAllLevels\":false},\"aggs\":[{\"id\":\"1\",\"type\":\"count\",\"schema\":\"metric\",\"params\":{}},{\"id\":\"2\",\"type\":\"date_histogram\",\"schema\":\"bucket\",\"params\":{\"field\":\"@timestamp\",\"interval\":\"auto\",\"customInterval\":\"2h\",\"min_doc_count\":1,\"extended_bounds\":{},\"customLabel\":\"Timestamp\"}},{\"id\":\"3\",\"type\":\"terms\",\"schema\":\"bucket\",\"params\":{\"field\":\"kubernetes.container_name.raw\",\"size\":10,\"order\":\"desc\",\"orderBy\":\"1\",\"customLabel\":\"Container\"}},{\"id\":\"4\",\"type\":\"terms\",\"schema\":\"bucket\",\"params\":{\"field\":\"kubernetes.namespace_name\",\"size\":10,\"order\":\"desc\",\"orderBy\":\"1\",\"customLabel\":\"Namespace\"}}],\"listeners\":{}}",
      "uiStateJSON": "{}",
      "description": "Visualization table for the 200 Codes",
      "savedSearchId": "SpringResult200",
      "version": 1,
      "kibanaSavedObjectMeta": {
        "searchSourceJSON": "{\"filter\":[]}"
      }
    }
  }
]
