[
  {
    "_id": "ContainerCreated",
    "_type": "search",
    "_source": {
      "title": "ContainerCreated_Search",
      "description": "Search to find the Created Containers",
      "hits": 0,
      "columns": [
        "_source"
      ],
      "sort": [
        "@timestamp",
        "desc"
      ],
      "version": 1,
      "kibanaSavedObjectMeta": {
        "searchSourceJSON": "{\"index\":\".all\",\"filter\":[],\"highlight\":{\"pre_tags\":[\"@kibana-highlighted-field@\"],\"post_tags\":[\"@/kibana-highlighted-field@\"],\"fields\":{\"*\":{}},\"require_field_match\":false,\"fragment_size\":2147483647},\"query\":{\"query_string\":{\"query\":\"message:pod AND message:created AND kubernetes.event.verb: \\\"ADDED\\\" AND kubernetes.event.involvedObject.kind: \\\"Pod\\\"\",\"analyze_wildcard\":true}}}"
      }
    }
  }
]
