[
  {
    "_id": "ImageInspectFailed",
    "_type": "search",
    "_source": {
      "title": "ImageInspectFailed_Search",
      "description": "Find Failed Inspect Image events",
      "hits": 0,
      "columns": [
        "_source"
      ],
      "sort": [
        "@timestamp",
        "desc"
      ],
      "version": 1,
      "kibanaSavedObjectMeta": {
        "searchSourceJSON": "{\"index\":\".all\",\"query\":{\"query_string\":{\"query\":\"message:ImageInspectError AND message:Failed AND message:inspect AND message:image\",\"analyze_wildcard\":true}},\"filter\":[],\"highlight\":{\"pre_tags\":[\"@kibana-highlighted-field@\"],\"post_tags\":[\"@/kibana-highlighted-field@\"],\"fields\":{\"*\":{}},\"require_field_match\":false,\"fragment_size\":2147483647}}"
      }
    }
  }
]
