[
  {
    "_id": "ImagePulled",
    "_type": "search",
    "_source": {
      "title": "ImagePulled_search",
      "description": "Search to find the Successfully Pulled Image event",
      "hits": 0,
      "columns": [
        "_source"
      ],
      "sort": [
        "@timestamp",
        "desc"
      ],
      "version": 1,
      "kibanaSavedObjectMeta": {
        "searchSourceJSON": "{\"index\":\".all\",\"query\":{\"query_string\":{\"query\":\"message:Successfully AND message:pulled AND message:image AND kubernetes.event.reason:\\\"Pulled\\\"\",\"analyze_wildcard\":true}},\"filter\":[],\"highlight\":{\"pre_tags\":[\"@kibana-highlighted-field@\"],\"post_tags\":[\"@/kibana-highlighted-field@\"],\"fields\":{\"*\":{}},\"require_field_match\":false,\"fragment_size\":2147483647}}"
      }
    }
  }
]
