[
  {
    "_id": "NodeRegistered",
    "_type": "search",
    "_source": {
      "title": "NodeRegistered_Search",
      "description": "Kibana Search for Node Registered events",
      "hits": 0,
      "columns": [
        "_source"
      ],
      "sort": [
        "@timestamp",
        "desc"
      ],
      "version": 1,
      "kibanaSavedObjectMeta": {
        "searchSourceJSON": "{\"index\":\".all\",\"filter\":[],\"highlight\":{\"pre_tags\":[\"@kibana-highlighted-field@\"],\"post_tags\":[\"@/kibana-highlighted-field@\"],\"fields\":{\"*\":{}},\"require_field_match\":false,\"fragment_size\":2147483647},\"query\":{\"query_string\":{\"query\":\"message:\\\"Kind\\\" AND message:\\\"Node\\\" AND message:\\\"Registered\\\" AND message:\\\"reason\\\" AND message:\\\"RegisteredNode\\\"\",\"analyze_wildcard\":true}}}"
      }
    }
  }
]
