[
  {
    "_id": "PodCreated",
    "_type": "search",
    "_source": {
      "title": "PodCreated_Search",
      "description": "Search to find the Created Pods",
      "hits": 0,
      "columns": [
        "_source"
      ],
      "sort": [
        "@timestamp",
        "desc"
      ],
      "version": 1,
      "kibanaSavedObjectMeta": {
        "searchSourceJSON": "{\"index\":\".all\",\"filter\":[],\"highlight\":{\"pre_tags\":[\"@kibana-highlighted-field@\"],\"post_tags\":[\"@/kibana-highlighted-field@\"],\"fields\":{\"*\":{}},\"require_field_match\":false,\"fragment_size\":2147483647},\"query\":{\"query_string\":{\"query\":\"kubernetes.event.reason:\\\"SuccessfulCreate\\\" AND message:pod AND message:created\",\"analyze_wildcard\":true}}}"
      }
    }
  }
]
