[
  {
    "_id": "PodFailedConfigurationValidation",
    "_type": "search",
    "_source": {
      "title": "PodFailedConfigurationValidation_Search",
      "description": "Kibana Search for Failed pod configuration validations events",
      "hits": 0,
      "columns": [
        "_source"
      ],
      "sort": [
        "@timestamp",
        "desc"
      ],
      "version": 1,
      "kibanaSavedObjectMeta": {
        "searchSourceJSON": "{\"index\":\".all\",\"filter\":[],\"highlight\":{\"pre_tags\":[\"@kibana-highlighted-field@\"],\"post_tags\":[\"@/kibana-highlighted-field@\"],\"fields\":{\"*\":{}},\"require_field_match\":false,\"fragment_size\":2147483647},\"query\":{\"query_string\":{\"query\":\"message:FailedValidation\",\"analyze_wildcard\":true}}}"
      }
    }
  }
]
